{
    "name": "progress-clocks",
    "title": "Progress Clocks",
    "description": "Brings Forged in the Dark style progress clocks to your FoundryVTT games.",
    "author": "troygoode, Argonius-Angelus, mattd",
    "url": "https://gitlab.com/Noobsaure/foundryvtt-status-cards",
    "manifest": "https://gitlab.com/Noobsaure/foundryvtt-status-cards/-/raw/main/module/module.json",
    "download": "https://github.com/mattd/foundryvtt-progress-clocks/releases/download/v1.5.4/build.zip",
    "version": "1.5.4",
    "minimumCoreVersion": "0.7.0",
    "compatibleCoreVersion": "10",
    "compatibility": {
        "minimum": "0.7.0",
        "verified": "10"
    },
    "esmodules": ["scripts/init.mjs"],
    "styles": ["styles/clocks.css"]
}
